@startuml
[*] -right-> Waiting: client connect()
Waiting --> Waiting: util full
Waiting -down-> Shuffling
Shuffling -down-> Bidding
Shuffling: -deal cards
Shuffling: -swap players
Bidding --> Bidding: for each player
Bidding -down-> Selecting
Selecting: Troef/Maat
Selecting -left-> Playing
Playing: -13 rounds
Playing -up-> Settling
Settling: -payments
Settling: -scores
Settling -up-> Shuffling: again?
Settling -left-> Exit
Exit -up-> [*]: kill client
@enduml