@startuml
[*] -right-> Joining: create server
Joining --> Joining: util full
Joining -down-> Shuffling
Shuffling -down-> Bidding
Shuffling: -deal cards
Shuffling: -swap players
Bidding --> Bidding: for each player
Bidding -down-> Selecting
Selecting: Troef/Maat
Selecting -left-> Playing
Playing: -13 rounds
Playing -up-> Settling
Settling: -payments
Settling: -scores
Settling -up-> Shuffling: again?
Settling -left-> Exit
Exit -up-> [*]: kill server
@enduml